module example.com/j2m-test

go 1.16

require (
	github.com/andybalholm/brotli v1.0.3 // indirect
	github.com/go-redis/redis v6.15.9+incompatible // indirect
	github.com/gofiber/fiber/v2 v2.15.0 // indirect
	github.com/klauspost/compress v1.13.1 // indirect
	github.com/valyala/fasthttp v1.28.0 // indirect
	golang.org/x/sys v0.0.0-20210630005230-0f9fa26af87c // indirect
)